{
  "name": "ui",
  "$schema": "../../node_modules/nx/schemas/project-schema.json",
  "sourceRoot": "apps/ui/src",
  "projectType": "application",
  "targets": {
    "build": {
      "executor": "@nrwl/webpack:webpack",
      "outputs": ["{options.outputPath}"],
      "defaultConfiguration": "production",
      "options": {
        "compiler": "babel",
        "outputPath": "dist/apps/ui",
        "index": "apps/ui/src/index.html",
        "baseHref": "./",
        "main": "apps/ui/src/main.tsx",
        "polyfills": "apps/ui/src/polyfills.ts",
        "tsConfig": "apps/ui/tsconfig.app.json",
        "assets": ["apps/ui/src/favicon.ico", "apps/ui/src/assets"],
        "styles": ["apps/ui/src/styles/styles.scss"],
        "scripts": [],
        "webpackConfig": "apps/ui/custom-webpack.config.js"
      },
      "configurations": {
        "development": {
          "extractLicenses": false,
          "optimization": false,
          "sourceMap": true,
          "vendorChunk": true
        },
        "production": {
          "fileReplacements": [
            {
              "replace": "apps/ui/src/environments/environment.ts",
              "with": "apps/ui/src/environments/environment.prod.ts"
            }
          ],
          "optimization": true,
          "outputHashing": "all",
          "sourceMap": false,
          "namedChunks": false,
          "extractLicenses": true,
          "vendorChunk": false
        }
      }
    },
    "serve": {
      "executor": "@nrwl/webpack:dev-server",
      "defaultConfiguration": "development",
      "options": {
        "buildTarget": "ui:build",
        "baseHref": "/",
        "hmr": true
      },
      "configurations": {
        "development": {
          "buildTarget": "ui:build:development"
        },
        "production": {
          "buildTarget": "ui:build:production",
          "hmr": false
        }
      }
    },
    "lint": {
      "executor": "@nrwl/linter:eslint",
      "outputs": ["{options.outputFile}"],
      "options": {
        "lintFilePatterns": ["apps/ui/**/*.{ts,tsx,js,jsx}"]
      }
    },
    "test": {
      "executor": "@nrwl/jest:jest",
      "outputs": ["coverage/apps/ui"],
      "options": {
        "jestConfig": "apps/ui/jest.config.ts",
        "passWithNoTests": true
      }
    }
  },
  "tags": []
}
